6 Epigenome-wide association analysis (EWAS) | Privacy protected federated omic data analysis in multi-center studies with DataSHIELD
…
Then, the last step is to meta-analyze the results. Different methods can be used to this end. We have implemented a method that meta-analyze the p-pvalues of each study as follows:

ans.meta <- metaPvalues(ans.limma)
ans.meta

# A tibble: 481,868 x 4
   id               cohort1     cohort2   p.meta
   <chr>              <dbl>       <dbl>    <dbl>
 1 cg13138089 0.00000000190 0.00000763  4.78e-13
 2 cg25317941 0.0000000179  0.00000196  1.12e-12
 3 cg02812891 0.00000000731 0.00000707  1.63e-12
 4 cg12706938 0.00000000425 0.0000161   2.14e-12
 5 cg16026647 0.000000101   0.000000797 2.51e-12
 6 cg12695465 0.00000000985 0.0000144   4.33e-12
 7 cg21171625 0.000000146   0.00000225  9.78e-12
 8 cg13772815 0.00000000327 0.000122    1.18e-11
 9 cg00228891 0.000000166   0.00000283  1.38e-11
10 cg21488617 0.0000000186  0.0000299   1.62e-11
# ... with 481,858 more rows
…
Here In some cases inflation can be observed, so that, correction for cell-type or surrogate variables must be performed. We describe how we can do that in the next two sections.

6.5 Adjusting for surrogate variables

The vast majority of omic studies require to control for unwanted variability. The surrogate variable analysis (SVA) can address this issue by estimating some hidden covariates that capture differences across individuals due to some artifacts such as batch effects or sample quality among others. The method is implemented in SVA package.

Performing this type of analysis using the ds.lmFeature function is not allowed since estimating SVA would require to implement a non-disclosive method that computes SVA from the different servers. This will be a future topic of the dsOmicsClient. For that reason we have to adopt a compromise solution which is to perform the SVA independently at each study. We use the ds.limma function to perform the analyses adjusted for SVA at each study.

ans.sva <- ds.limma(model = ~ diagnosis + Sex, 
                    Set = "eSet",
                    sva = TRUE, annotCols = c("CHR", "UCSC_RefGene_Name"))
ans.sva

$cohort1
# A tibble: 481,868 x 9
   id          n    beta      SE     t  P.Value adj.P.Val CHR   UCSC_RefGene_Na~
   <chr>   <int>   <dbl>   <dbl> <dbl>    <dbl>     <dbl> <chr> <chr>           
 1 cg1313~   100 -0.147  0.0122  -6.62  1.90e-9  0.000466 2     "ECEL1P2"       
 2 cg2385~   100 -0.0569 0.00520 -6.58  2.32e-9  0.000466 2     "MTA3"          
 3 cg1377~   100 -0.0820 0.0135  -6.50  3.27e-9  0.000466 17    ""              
 4 cg1270~   100 -0.0519 0.00872 -6.45  4.25e-9  0.000466 19    "MEX3D"         
 5 cg2472~   100 -0.0452 0.00775 -6.39  5.47e-9  0.000466 19    "ISOC2;ISOC2;IS~
 6 cg0281~   100 -0.125  0.0163  -6.33  7.31e-9  0.000466 2     "ECEL1P2"       
 7 cg2766~   100 -0.0588 0.0198  -6.33  7.48e-9  0.000466 16    "ANKRD11"       
 8 cg1537~   100 -0.0709 0.0115  -6.32  7.83e-9  0.000466 2     "LPIN1"         
 9 cg1552~   100 -0.0446 0.00750 -6.29  8.69e-9  0.000466 10    ""              
10 cg1269~   100 -0.0497 0.00155 -6.27  9.85e-9  0.000475 6     "GCNT2;GCNT2;GC~
# ... with 481,858 more rows

$cohort2
# A tibble: 481,868 x 9
   id         n    beta      SE     t P.Value adj.P.Val CHR   UCSC_RefGene_Name 
   <chr>  <int>   <dbl>   <dbl> <dbl>   <dbl>     <dbl> <chr> <chr>             
 1 cg040~    90 -0.101  0.0128  -5.91 6.21e-8    0.0172 11    "CD6"             
 2 cg076~    90 -0.0431 0.00390 -5.85 8.22e-8    0.0172 6     "MUC21"           
 3 cg270~    90 -0.0688 0.0147  -5.79 1.07e-7    0.0172 11    "CD6"             
 4 cg089~    90 -0.0461 0.00791 -5.55 2.98e-7    0.0360 1     ""                
 5 cg183~    90 -0.0491 0.00848 -5.42 5.07e-7    0.0489 3     "RARRES1;RARRES1" 
 6 cg021~    90 -0.0199 0.0155  -5.36 6.70e-7    0.0538 8     ""                
 7 cg160~    90 -0.0531 0.0196  -5.31 7.97e-7    0.0548 17    "MEIS3P1"         
 8 cg012~    90 -0.0537 0.00971 -5.18 1.39e-6    0.0582 7     "HOXA2"           
 9 cg251~    90 -0.0224 0.00736 -5.15 1.57e-6    0.0582 3     "ZBTB20;ZBTB20;ZB~
10 cg074~    90 -0.0475 0.00166 -5.13 1.67e-6    0.0582 22    "C22orf27"        
# ... with 481,858 more rows

attr(,"class")
[1] "dsLimma" "list"   

Then, data can be combined meta-anlyzed as follows:

ans.meta.sv <- metaPvalues(ans.sva)
ans.meta.sv

# A tibble: 481,868 x 4
   id               cohort1     cohort2   p.meta
   <chr>              <dbl>       <dbl>    <dbl>
 1 cg13138089 0.00000000190 0.00000763  4.78e-13
 2 cg25317941 0.0000000179  0.00000196  1.12e-12
 3 cg02812891 0.00000000731 0.00000707  1.63e-12
 4 cg12706938 0.00000000425 0.0000161   2.14e-12
 5 cg16026647 0.000000101   0.000000797 2.51e-12
 6 cg12695465 0.00000000985 0.0000144   4.33e-12
 7 cg21171625 0.000000146   0.00000225  9.78e-12
 8 cg13772815 0.00000000327 0.000122    1.18e-11
 9 cg00228891 0.000000166   0.00000283  1.38e-11
10 cg21488617 0.0000000186  0.0000299   1.62e-11
# ... with 481,858 more rows
…
