3 Genome wide association study (GWAS) analysis | Privacy protected federated omic data analysis in multi-center studies with DataSHIELD
…
For this use case we will use the following formula.

diabetes_diagnosed_doctor ~ sex + hdl_cholesterol

3.1.5 Performing the GWAS

We are finally ready to achieve our ultimate goal, performing a GWAS analysis. We have our data (genotype + phenotypes) organized into the correspondent objects (GenotypeData) and our association formula ready. The function ds.metaGWAS is in charge of doing the analysis, we have to supply it with the names of the GenotypeData objects of the remote R session and the formula. Since we have 21 different objects, the paste0 function is used to simplify the call.

results_single <- ds.metaGWAS(genoData = paste0("gds.Data", 1:21), 
                              model = diabetes_diagnosed_doctor ~ sex + hdl_cholesterol)[[1]]

results_single

# A tibble: 865,240 x 10
   rs        chr        pos n.obs  freq   p.value    Est Est.SE reference_allele
 * <chr>     <chr>    <int> <dbl> <dbl>     <dbl>  <dbl>  <dbl> <chr>           
 1 rs4648446 1       2.89e6  1292 0.512   7.42e-6 -0.323 0.0721 C               
 2 rs4659014 1       1.20e8  1296 0.587   8.74e-6  0.321 0.0723 T               
 3 rs127465~ 1       2.90e6  1294 0.548   9.69e-6 -0.321 0.0725 C               
 4 rs313728  1       8.62e7  1293 0.277   1.08e-5 -0.375 0.0852 C               
 5 rs113272~ 1       1.17e8  1292 0.859   1.08e-5 -0.459 0.104  T               
 6 rs173625~ 1       2.82e7  1293 0.864   2.26e-5 -0.466 0.110  C               
 7 rs292001  1       2.30e7  1293 0.343   2.64e-5  0.327 0.0779 G               
 8 rs741198~ 1       1.47e8  1294 0.932   3.16e-5  0.608 0.146  A               
 9 rs580006~ 1       5.30e7  1293 0.929   3.69e-5  0.590 0.143  C               
10 rs729056~ 1       5.30e7  1294 0.929   4.18e-5  0.586 0.143  G               
# ... with 865,230 more rows, and 1 more variable: alternate_allele <chr>
…
results <- ds.metaGWAS(genoData = paste0("gds.Data", 1:21), 
                       model = diabetes_diagnosed_doctor ~ sex + hdl_cholesterol)

And we can see the results for each cohort.

Cohort 1

Cohort 2

Cohort 3

⠀

# A tibble: 865,162 x 10
   rs        chr        pos n.obs  freq   p.value    Est Est.SE reference_allele
 * <chr>     <chr>    <int> <dbl> <dbl>     <dbl>  <dbl>  <dbl> <chr>           
 1 rs579533~ 1       3.90e7   430 0.737   3.28e-7  0.730  0.143 T               
 2 rs113272~ 1       1.17e8   428 0.876   6.44e-7 -0.936  0.188 T               
 3 rs4970551 1       3.90e7   350 0.749   6.02e-6  0.738  0.163 A               
 4 rs9726184 1       2.81e7   430 0.801   6.50e-6  0.702  0.156 C               
 5 rs2906466 1       4.43e7   428 0.551   8.79e-6 -0.563  0.127 A               
 6 rs121172~ 1       1.87e8   428 0.407   8.87e-6 -0.600  0.135 T               
 7 rs1626710 1       2.06e8   428 0.215   1.06e-5 -0.693  0.157 C               
 8 rs109026~ 1       2.81e7   430 0.8     1.10e-5  0.679  0.155 G               
 9 rs1938519 1       1.87e8   429 0.597   1.24e-5  0.587  0.134 A               
10 rs1572823 1       1.99e7   428 0.189   1.24e-5 -0.740  0.169 T               
# ... with 865,152 more rows, and 1 more variable: alternate_allele <chr>

⠀

# A tibble: 865,190 x 10
   rs        chr        pos n.obs  freq   p.value    Est Est.SE reference_allele
 * <chr>     <chr>    <int> <dbl> <dbl>     <dbl>  <dbl>  <dbl> <chr>           
 1 rs9426275 1       2.98e7   549 0.756   5.07e-6 -0.666  0.146 C               
 2 rs124057~ 1       8.57e7   549 0.934   9.05e-5  0.917  0.234 A               
 3 rs2762766 1       1.45e8   550 0.52    1.11e-4  1.18   0.305 T               
 4 rs111615~ 1       8.58e7   549 0.779   1.80e-4  0.522  0.139 T               
 5 rs4657641 1       1.67e8   552 0.343   2.54e-4 -0.416  0.114 G               
 6 rs2295623 1       1.60e8   549 0.906   2.96e-4  0.715  0.197 C               
 7 rs1891510 1       1.16e8   550 0.725   2.97e-4  0.499  0.138 T               
 8 rs776826~ 1       2.21e8   551 0.928   3.06e-4 -0.802  0.222 C               
 9 rs120926~ 1       3.13e7   551 0.819   3.68e-4 -0.546  0.153 C               
10 rs6670319 1       1.16e8   552 0.724   3.99e-4  0.488  0.138 T               
# ... with 865,180 more rows, and 1 more variable: alternate_allele <chr>

⠀

# A tibble: 849,560 x 10
   rs        chr         pos n.obs  freq  p.value    Est Est.SE reference_allele
 * <chr>     <chr>     <int> <dbl> <dbl>    <dbl>  <dbl>  <dbl> <chr>           
 1 rs4915771 1      62151742   285 0.593  2.77e-5 -0.700  0.167 G               
 2 rs7544580 1      62178523   285 0.593  2.77e-5 -0.700  0.167 T               
 3 rs1385117 1     102112168   286 0.893  3.81e-5  1.09   0.264 A               
 4 rs121437~ 1     172319486   285 0.909  4.07e-5  1.16   0.283 T               
 5 rs7521871 1     102110628   285 0.893  4.19e-5  1.08   0.264 G               
 6 rs133739~ 1     102113861   285 0.893  4.19e-5  1.08   0.264 A               
 7 rs600511~ 1     245057001   286 0.893  6.36e-5  1.08   0.271 T               
 8 rs1938514 1     187349937   285 0.760  8.05e-5 -0.746  0.189 C               
 9 rs121309~ 1     172358588   285 0.919  8.18e-5  1.16   0.295 G               
10 rs761675~ 1     172361011   285 0.919  8.18e-5  1.16   0.295 G               
# ... with 849,550 more rows, and 1 more variable: alternate_allele <chr>
…
P-Z Plot: Plot to reveal issues with beta estimates, standard errors and P values. The plots compare P values reported in the association GWAS with P values calculated from Z-statistics (P.ztest) derived from the reported beta and standard error. A study with no issues should show perfect concordance. It will generate a plot per study, where concordance of all the study SNPs will be displayed.

SE-N Plot: Plot to reveal issues with trait transformations. A collection of studies with no issues will fall on a line.

If any of these QC raises some inconsistencies, please contact the correspondent study analyst.

3.2.7.1 EAF Plot

For this plot we are comparing the estimated allele frequencies to a reference set, so the first step is to get ourselves a reference set. For this example we will be using the ALL.wgs.phase1_release_v3.20101123 reference set. We will download it and load it into the client R session.

reference <- readr::read_tsv("https://homepages.uni-regensburg.de/~wit59712/easyqc/exomechip/ALL.wgs.phase1_release_v3.20101123.snps_indels_sv.sites.EUR_AF.txt.exm.tab.sexChr.DI.txt.GZ")
reference

# A tibble: 75,292 x 8
   ExmName    chrChr_Pos    Chr    Pos Rs          Ref   Alt     Freq
   <chr>      <chr>       <dbl>  <dbl> <chr>       <chr> <chr>  <dbl>
 1 exm2268640 chr1:762320     1 762320 rs75333668  C     T     0.0013
 2 exm47      chr1:865628     1 865628 rs41285790  G     A     0.01  
 3 exm55      chr1:865694     1 865694 rs9988179   C     T     0.0026
 4 exm67      chr1:871159     1 871159 .           G     A     0.0013
 5 exm106     chr1:874762     1 874762 rs139437968 C     T     0.0013
 6 exm158     chr1:878744     1 878744 .           G     C     0.0026
 7 exm241     chr1:880502     1 880502 rs74047418  C     T     0.0013
 8 exm2253575 chr1:881627     1 881627 rs2272757   G     A     0.63  
 9 exm269     chr1:881918     1 881918 rs35471880  G     A     0.06  
10 exm340     chr1:888659     1 888659 rs3748597   T     C     0.95  
# ... with 75,282 more rows
…
